lab_1/synthesis/simulation/questa/msim_transcript
# Reading pref.tcl
# //  Questa Altera Starter FPGA Edition-64
# //  Version 2025.2 win64 May 31 2025
# //
# // Unpublished work. Copyright 2025 Siemens
# //
# // This material contains trade secrets or otherwise confidential information
# // owned by Siemens Industry Software Inc. or its affiliates (collectively,
# // "SISW"), or its licensors. Access to and use of this information is strictly
# // limited as set forth in the Customer's applicable agreements with SISW.
# //
# // This material may not be copied, distributed, or otherwise disclosed outside
# // of the Customer's facilities without the express written permission of SISW,
# // and may not be used in any way not expressly authorized by SISW.
# //
# do top_run_msim_rtl_verilog.do
# if {[file exists rtl_work]} {
# 	vdel -lib rtl_work -all
# }
# vlib rtl_work
# vmap work rtl_work
# Questa Altera Starter FPGA Edition-64 vmap 2025.2 Lib Mapping Utility 2025.05 May 31 2025
# vmap work rtl_work 
# ** Note: (vmap-220) 'c:/altera_lite/25.1std/questa_fse/win64/../modelsim.ini' is used as the ini file.
# Copying c:/altera_lite/25.1std/questa_fse/win64/../modelsim.ini to modelsim.ini
# Modifying modelsim.ini
# 
# vlog  -work work +incdir+C:/Users/thyse/ECE3700Labs/lab_1/hdl {C:/Users/thyse/ECE3700Labs/lab_1/hdl/two_bit_computer.v}
# Questa Altera Starter FPGA Edition-64 vlog 2025.2 Compiler 2025.05 May 31 2025
# Start time: 10:23:48 on Jan 28,2026
# vlog -reportprogress 300 -work work "+incdir+C:/Users/thyse/ECE3700Labs/lab_1/hdl" C:/Users/thyse/ECE3700Labs/lab_1/hdl/two_bit_computer.v 
# ** Note: (vlog-220) 'modelsim.ini' is used as the ini file.
# -- Compiling module two_bit_computer
# 
# Top level modules:
# 	two_bit_computer
# End time: 10:23:48 on Jan 28,2026, Elapsed time: 0:00:00
# Errors: 0, Warnings: 0
# 
# vlog  -work work +incdir+C:/Users/thyse/ECE3700Labs/lab_1/synthesis/../hdl {C:/Users/thyse/ECE3700Labs/lab_1/synthesis/../hdl/tb_two_bit_computer.v}
# Questa Altera Starter FPGA Edition-64 vlog 2025.2 Compiler 2025.05 May 31 2025
# Start time: 10:23:49 on Jan 28,2026
# vlog -reportprogress 300 -work work "+incdir+C:/Users/thyse/ECE3700Labs/lab_1/synthesis/../hdl" C:/Users/thyse/ECE3700Labs/lab_1/synthesis/../hdl/tb_two_bit_computer.v 
# ** Note: (vlog-220) 'modelsim.ini' is used as the ini file.
# -- Compiling module tb_two_bit_computer
# 
# Top level modules:
# 	tb_two_bit_computer
# End time: 10:23:49 on Jan 28,2026, Elapsed time: 0:00:00
# Errors: 0, Warnings: 0
# 
# vsim -t 1ps -L altera_ver -L lpm_ver -L sgate_ver -L altera_mf_ver -L altera_lnsim_ver -L fiftyfivenm_ver -L rtl_work -L work -voptargs="+acc"  tb_two_bit_computer
# ** Note: (vsim-220) 'modelsim.ini' is used as the ini file.
# vsim -t 1ps -L altera_ver -L lpm_ver -L sgate_ver -L altera_mf_ver -L altera_lnsim_ver -L fiftyfivenm_ver -L rtl_work -L work -voptargs=""+acc"" tb_two_bit_computer 
# Start time: 10:23:49 on Jan 28,2026
# ** Note: (vsim-3812) Design is being optimized...
# ** Warning: (vopt-10908) Some optimizations are turned off because the +acc switch is in effect.
# ** Note: (vopt-220) 'modelsim.ini' is used as the ini file.
# ** Note: (vsim-12126) Error and warning message counts have been restored: Errors=0, Warnings=1.
# Loading work.tb_two_bit_computer(fast)
# Loading work.two_bit_computer(fast)
# 
# add wave *
# view structure
# .main_pane.structure.interior.cs.body.struct
# view signals
# .main_pane.objects.interior.cs.body.tree
# run -all
# A1: 0, A0: 0, B1: 0, B0: 0, I1: 0, I0: 0, F1: 0, F0: 0
# A1: 0, A0: 1, B1: 0, B0: 0, I1: 0, I0: 0, F1: 0, F0: 0
# A1: 1, A0: 0, B1: 0, B0: 0, I1: 0, I0: 0, F1: 0, F0: 0
# A1: 1, A0: 1, B1: 0, B0: 0, I1: 0, I0: 0, F1: 0, F0: 0
# A1: 0, A0: 0, B1: 0, B0: 1, I1: 0, I0: 0, F1: 0, F0: 0
# A1: 0, A0: 1, B1: 0, B0: 1, I1: 0, I0: 0, F1: 0, F0: 1
# A1: 1, A0: 0, B1: 0, B0: 1, I1: 0, I0: 0, F1: 0, F0: 0
# A1: 1, A0: 1, B1: 0, B0: 1, I1: 0, I0: 0, F1: 0, F0: 1
# A1: 0, A0: 0, B1: 1, B0: 0, I1: 0, I0: 0, F1: 0, F0: 0
# A1: 0, A0: 1, B1: 1, B0: 0, I1: 0, I0: 0, F1: 0, F0: 0
# A1: 1, A0: 0, B1: 1, B0: 0, I1: 0, I0: 0, F1: 1, F0: 0
# A1: 1, A0: 1, B1: 1, B0: 0, I1: 0, I0: 0, F1: 1, F0: 0
# A1: 0, A0: 0, B1: 1, B0: 1, I1: 0, I0: 0, F1: 0, F0: 0
# A1: 0, A0: 1, B1: 1, B0: 1, I1: 0, I0: 0, F1: 0, F0: 1
# A1: 1, A0: 0, B1: 1, B0: 1, I1: 0, I0: 0, F1: 1, F0: 0
# A1: 1, A0: 1, B1: 1, B0: 1, I1: 0, I0: 0, F1: 1, F0: 1
# A1: 0, A0: 0, B1: 0, B0: 0, I1: 0, I0: 1, F1: 1, F0: 1
# A1: 0, A0: 1, B1: 0, B0: 0, I1: 0, I0: 1, F1: 1, F0: 0
# A1: 1, A0: 0, B1: 0, B0: 0, I1: 0, I0: 1, F1: 0, F0: 1
# A1: 1, A0: 1, B1: 0, B0: 0, I1: 0, I0: 1, F1: 0, F0: 0
# A1: 0, A0: 0, B1: 0, B0: 1, I1: 0, I0: 1, F1: 1, F0: 0
# A1: 0, A0: 1, B1: 0, B0: 1, I1: 0, I0: 1, F1: 1, F0: 1
# A1: 1, A0: 0, B1: 0, B0: 1, I1: 0, I0: 1, F1: 0, F0: 0
# A1: 1, A0: 1, B1: 0, B0: 1, I1: 0, I0: 1, F1: 0, F0: 1
# A1: 0, A0: 0, B1: 1, B0: 0, I1: 0, I0: 1, F1: 0, F0: 1
# A1: 0, A0: 1, B1: 1, B0: 0, I1: 0, I0: 1, F1: 0, F0: 0
# A1: 1, A0: 0, B1: 1, B0: 0, I1: 0, I0: 1, F1: 1, F0: 1
# A1: 1, A0: 1, B1: 1, B0: 0, I1: 0, I0: 1, F1: 1, F0: 0
# A1: 0, A0: 0, B1: 1, B0: 1, I1: 0, I0: 1, F1: 0, F0: 0
# A1: 0, A0: 1, B1: 1, B0: 1, I1: 0, I0: 1, F1: 0, F0: 1
# A1: 1, A0: 0, B1: 1, B0: 1, I1: 0, I0: 1, F1: 1, F0: 0
# A1: 1, A0: 1, B1: 1, B0: 1, I1: 0, I0: 1, F1: 1, F0: 1
# A1: 0, A0: 0, B1: 0, B0: 0, I1: 1, I0: 0, F1: 0, F0: 0
# A1: 0, A0: 1, B1: 0, B0: 0, I1: 1, I0: 0, F1: 0, F0: 1
# A1: 1, A0: 0, B1: 0, B0: 0, I1: 1, I0: 0, F1: 1, F0: 0
# A1: 1, A0: 1, B1: 0, B0: 0, I1: 1, I0: 0, F1: 1, F0: 1
# A1: 0, A0: 0, B1: 0, B0: 1, I1: 1, I0: 0, F1: 0, F0: 1
# A1: 0, A0: 1, B1: 0, B0: 1, I1: 1, I0: 0, F1: 0, F0: 1
# A1: 1, A0: 0, B1: 0, B0: 1, I1: 1, I0: 0, F1: 1, F0: 1
# A1: 1, A0: 1, B1: 0, B0: 1, I1: 1, I0: 0, F1: 1, F0: 1
# A1: 0, A0: 0, B1: 1, B0: 0, I1: 1, I0: 0, F1: 1, F0: 0
# A1: 0, A0: 1, B1: 1, B0: 0, I1: 1, I0: 0, F1: 1, F0: 1
# A1: 1, A0: 0, B1: 1, B0: 0, I1: 1, I0: 0, F1: 1, F0: 0
# A1: 1, A0: 1, B1: 1, B0: 0, I1: 1, I0: 0, F1: 1, F0: 1
# A1: 0, A0: 0, B1: 1, B0: 1, I1: 1, I0: 0, F1: 1, F0: 1
# A1: 0, A0: 1, B1: 1, B0: 1, I1: 1, I0: 0, F1: 1, F0: 1
# A1: 1, A0: 0, B1: 1, B0: 1, I1: 1, I0: 0, F1: 1, F0: 1
# A1: 1, A0: 1, B1: 1, B0: 1, I1: 1, I0: 0, F1: 1, F0: 1
# A1: 0, A0: 0, B1: 0, B0: 0, I1: 1, I0: 1, F1: 1, F0: 1
# A1: 0, A0: 1, B1: 0, B0: 0, I1: 1, I0: 1, F1: 1, F0: 0
# A1: 1, A0: 0, B1: 0, B0: 0, I1: 1, I0: 1, F1: 0, F0: 1
# A1: 1, A0: 1, B1: 0, B0: 0, I1: 1, I0: 1, F1: 0, F0: 0
# A1: 0, A0: 0, B1: 0, B0: 1, I1: 1, I0: 1, F1: 1, F0: 1
# A1: 0, A0: 1, B1: 0, B0: 1, I1: 1, I0: 1, F1: 1, F0: 0
# A1: 1, A0: 0, B1: 0, B0: 1, I1: 1, I0: 1, F1: 0, F0: 1
# A1: 1, A0: 1, B1: 0, B0: 1, I1: 1, I0: 1, F1: 0, F0: 0
# A1: 0, A0: 0, B1: 1, B0: 0, I1: 1, I0: 1, F1: 1, F0: 1
# A1: 0, A0: 1, B1: 1, B0: 0, I1: 1, I0: 1, F1: 1, F0: 0
# A1: 1, A0: 0, B1: 1, B0: 0, I1: 1, I0: 1, F1: 0, F0: 1
# A1: 1, A0: 1, B1: 1, B0: 0, I1: 1, I0: 1, F1: 0, F0: 0
# A1: 0, A0: 0, B1: 1, B0: 1, I1: 1, I0: 1, F1: 1, F0: 1
# A1: 0, A0: 1, B1: 1, B0: 1, I1: 1, I0: 1, F1: 1, F0: 0
# A1: 1, A0: 0, B1: 1, B0: 1, I1: 1, I0: 1, F1: 0, F0: 1
# A1: 1, A0: 1, B1: 1, B0: 1, I1: 1, I0: 1, F1: 0, F0: 0
# Causality operation skipped due to absence of debug database file
# image file format "bmp" is unknown
# image file format "bmp" is unknown
# End time: 13:02:06 on Jan 28,2026, Elapsed time: 2:38:17
# Errors: 0, Warnings: 1
